{
    "defaultSeverity": "warning",
    "extends": [
        "tslint:recommended"
    ],
    "jsRules": {},
    "rules": {
        "variable-name": {
            "options": [
                "ban-keywords",
                "check-format",
                "allow-leading-underscore",
                "allow-pascal-case"
            ]
        }

    },
    "rulesDirectory": []
}