{
    "authority": {
        "uri": "http://localhost:8081/"
    },
    "process": {
        "checkLatest": false,
        "location": "/processes/averagePrice",
        "uses": [
            {
                "authority": "http://localhost:8081/",
                "facts": [
                    "/facts/tollesbuch1"
                ]
            }
        ]
    },
    "activity": {
        "location": "/activities/averagePrice"
    }
}
