{
    "authority": {
        "uri": "http://localhost:8081"
    },
    "process": {
        "checkLatest": false,
        "location": "processes/bookpublish",
        "uses": [
        ]
    },
    "activity": {
        "location": "activities/bookpublish"
    }
}
